…
I do the data cleaning in this chunk and mainly focus on Overall Health
topic. And also factor response variable from poor to excellent.

``` r
brfss_smart2010 %>% 
  janitor::clean_names() %>% 
  filter(topic == "Overall Health") %>% 
  mutate(response = factor(response, 
                           levels = c("Poor", "Fair", "Good", "Very good", "Excellent"), 
                           ordered = TRUE)) %>% 
  arrange(response)
```

    ## # A tibble: 10,625 × 23
    ##     year locationabbr locationdesc  class  topic  question  response sample_size
    ##    <int> <chr>        <chr>         <chr>  <chr>  <chr>     <ord>          <int>
    ##  1  2010 AL           AL - Jeffers… Healt… Overa… How is y… Poor              45
    ##  2  2010 AL           AL - Mobile … Healt… Overa… How is y… Poor              66
    ##  3  2010 AL           AL - Tuscalo… Healt… Overa… How is y… Poor              35
    ##  4  2010 AZ           AZ - Maricop… Healt… Overa… How is y… Poor              62
    ##  5  2010 AZ           AZ - Pima Co… Healt… Overa… How is y… Poor              49
    ##  6  2010 AZ           AZ - Pinal C… Healt… Overa… How is y… Poor              30
    ##  7  2010 AR           AR - Benton … Healt… Overa… How is y… Poor              21
    ##  8  2010 AR           AR - Pulaski… Healt… Overa… How is y… Poor              36
    ##  9  2010 AR           AR - Washing… Healt… Overa… How is y… Poor              16
    ## 10  2010 CA           CA - Alameda… Healt… Overa… How is y… Poor              23
    ## # … with 10,615 more rows, and 15 more variables: data_value <dbl>,
    ## #   confidence_limit_low <dbl>, confidence_limit_high <dbl>,
    ## #   display_order <int>, data_value_unit <chr>, data_value_type <chr>,
    ## #   data_value_footnote_symbol <chr>, data_value_footnote <chr>,
    ## #   data_source <chr>, class_id <chr>, topic_id <chr>, location_id <chr>,
    ## #   question_id <chr>, respid <chr>, geo_location <chr>
